{
  "uv_index": {
    "1": "low",
    "2": "low",
    "3": "medium",
    "4": "medium",
    "5": "medium",
    "6": "high",
    "7": "high",
    "8": "very high",
    "9": "very high",
    "10": "very high",
    "11": "extrem"
  },
  "weather_types": {
    "clear sky": "sunny",
    "clouds": "cloudy",
    "rain": "rainy",
    "thunderstorm": "stormy",
    "snow": "snowy",
    "mist": "foggy"
  },
  "current_text": [
    "Currently it has {} degrees. The humidity is {} percent and the wind speed is {} meters per second. The perceived temperature is {} degrees."
  ],
  "uv_note": [
    "The U V intensity is currently {}."
  ],
  "no_changes_next_hour": [
    "Within the next hour, the weather should remain stable."
  ],
  "rain_starts_next_hour": [
    "In about {} minutes it will start raining or snowing."
  ],
  "rain_stops_next_hour": [
    "In about {} minutes the precipitation will stop."
  ],
  "rain_between_next_hour": [
    "In {} minutes it will rain or snow {} but minutes later it will stop again."
  ],
  "sun_between_next_hour": [
    "In {} minutes the precipitation will stop for about {} minutes."
  ],
  "day_forecast": [
    "On {} the weather will be {}. The maximum temperature is {} degrees, the minimum temperature {}."
  ],
  "tomorrow_forecast": [
    "Tomorrow the weather will be {}. The highest temperature is {} degrees, the lowest temperature {}."
  ],
  "week_forecast": [
    "Tomorrow will be the weather {}. {} {}, {} {}, {} {}, {} {}, {} {}, {} {}. The warmest day is {} with {} degrees, the coldest {} with {} degrees."
  ],
  "load_error": [
    "There was an error while loading, just try again. Maybe I don't have Internet either."
  ],
  "date_not_possible": [
    "I have no weather report for that date."
  ],
  "request_running": [
    "Still working on your last request.",
    "Don't be so impatient, I'm already working on it."
  ],
  "date_not_understood": [
    "Unfortunately I did not understand the date for the weather forecast",
    "I'm sorry, I didn't understand the date."
  ]
}
